<svg width="20" height="20" viewBox="0 0 20 20" fill="none" xmlns="http://www.w3.org/2000/svg">
<g id="contact_support">
<mask id="mask0_543_2410" style="mask-type:alpha" maskUnits="userSpaceOnUse" x="0" y="0" width="20" height="20">
<rect id="Bounding box" width="20" height="20" fill="#D9D9D9"/>
</mask>
<g mask="url(#mask0_543_2410)">
<path id="contact_support_2" d="M10.4167 17.6121L10.2885 15.4166H9.58333C7.72864 15.4166 6.15386 14.7692 4.859 13.4743C3.56412 12.1795 2.91669 10.6047 2.91669 8.75C2.91669 6.8953 3.56412 5.32053 4.859 4.02566C6.15386 2.73079 7.72864 2.08335 9.58333 2.08335C10.5107 2.08335 11.3774 2.2567 12.1835 2.60339C12.9896 2.95007 13.6955 3.4263 14.3013 4.03206C14.907 4.63784 15.3833 5.34377 15.7299 6.14985C16.0766 6.95594 16.25 7.82265 16.25 8.75C16.25 10.6581 15.6995 12.3835 14.5985 13.9262C13.4976 15.469 12.1036 16.6976 10.4167 17.6121ZM9.58654 13.1442C9.7906 13.1442 9.96394 13.0729 10.1066 12.9303C10.2492 12.7876 10.3205 12.6143 10.3205 12.4102C10.3205 12.2062 10.2492 12.0329 10.1066 11.8902C9.96394 11.7476 9.7906 11.6763 9.58654 11.6763C9.38249 11.6763 9.20915 11.7476 9.06652 11.8902C8.9239 12.0329 8.85258 12.2062 8.85258 12.4102C8.85258 12.6143 8.9239 12.7876 9.06652 12.9303C9.20915 13.0729 9.38249 13.1442 9.58654 13.1442ZM9.59935 10.6026C9.72008 10.6026 9.83226 10.5577 9.9359 10.4679C10.0395 10.3782 10.1068 10.2575 10.1378 10.1058C10.1709 9.90385 10.2513 9.72196 10.379 9.5601C10.5067 9.39824 10.7286 9.15919 11.0449 8.84294C11.2895 8.59828 11.4885 8.34081 11.6418 8.07052C11.7951 7.80021 11.8718 7.50107 11.8718 7.17308C11.8718 6.51816 11.6482 6.0163 11.2011 5.66748C10.754 5.31866 10.2201 5.14425 9.59935 5.14425C9.13997 5.14425 8.74119 5.25269 8.40304 5.46956C8.0649 5.68643 7.79007 5.95353 7.57854 6.27083C7.50268 6.39157 7.48933 6.51924 7.53848 6.65385C7.58762 6.78846 7.68804 6.88248 7.83975 6.93589C7.95193 6.98077 8.0641 6.98077 8.17627 6.93589C8.28845 6.89102 8.38674 6.80822 8.47115 6.6875C8.5876 6.51869 8.73637 6.37633 8.91746 6.26041C9.09856 6.1445 9.32585 6.08654 9.59935 6.08654C10.0224 6.08654 10.3371 6.20272 10.5433 6.43508C10.7495 6.66746 10.8526 6.922 10.8526 7.19873C10.8526 7.4562 10.7818 7.68002 10.6402 7.87019C10.4987 8.06037 10.3227 8.26069 10.1122 8.47117C9.75001 8.78312 9.50161 9.05128 9.367 9.27564C9.23239 9.50001 9.15119 9.77671 9.12342 10.1058C9.10953 10.235 9.14959 10.3502 9.2436 10.4511C9.33762 10.5521 9.4562 10.6026 9.59935 10.6026ZM11.6667 14.1667V15.2917C12.6528 14.4583 13.4549 13.4826 14.0729 12.3646C14.691 11.2465 15 10.0417 15 8.75C15 7.23611 14.4757 5.95486 13.4271 4.90625C12.3785 3.85764 11.0972 3.33333 9.58333 3.33333C8.06944 3.33333 6.78819 3.85764 5.73958 4.90625C4.69097 5.95486 4.16667 7.23611 4.16667 8.75C4.16667 10.2639 4.69097 11.5451 5.73958 12.5937C6.78819 13.6424 8.06944 14.1667 9.58333 14.1667H11.6667Z" fill="#1C1B1F"/>
</g>
</g>
</svg>
