<svg width="20" height="20" viewBox="0 0 20 20" fill="none" xmlns="http://www.w3.org/2000/svg">
<g id="dashboard">
<mask id="mask0_733_1980" style="mask-type:alpha" maskUnits="userSpaceOnUse" x="0" y="0" width="20" height="20">
<rect id="Bounding box" width="20" height="20" fill="#212121"/>
</mask>
<g mask="url(#mask0_733_1980)">
<path id="dashboard_2" d="M11.042 6.57617V3.71552C11.042 3.49815 11.1213 3.31067 11.2801 3.15308C11.4388 2.99549 11.6235 2.91669 11.8341 2.91669H16.2949C16.5055 2.91669 16.6896 2.99549 16.8472 3.15308C17.0048 3.31067 17.0836 3.49815 17.0836 3.71552V6.57617C17.0836 6.79356 17.0043 6.98104 16.8455 7.13863C16.6868 7.29621 16.5021 7.375 16.2915 7.375H11.8307C11.6201 7.375 11.436 7.29621 11.2784 7.13863C11.1208 6.98104 11.042 6.79356 11.042 6.57617ZM2.91699 9.66862V3.70621C2.91699 3.49504 2.99635 3.31067 3.15508 3.15308C3.3138 2.99549 3.49676 2.91669 3.70395 2.91669H8.09174C8.29894 2.91669 8.48133 2.99551 8.63891 3.15317C8.79649 3.31081 8.87528 3.49521 8.87528 3.70638V9.66879C8.87528 9.87996 8.79593 10.0643 8.63722 10.2219C8.4785 10.3795 8.29553 10.4583 8.08833 10.4583H3.70055C3.49336 10.4583 3.31097 10.3795 3.15339 10.2218C2.99579 10.0642 2.91699 9.87979 2.91699 9.66862ZM11.042 16.2936V10.3312C11.042 10.12 11.1213 9.93567 11.2801 9.77808C11.4388 9.62049 11.6235 9.54169 11.8341 9.54169H16.2949C16.5055 9.54169 16.6896 9.62051 16.8472 9.77817C17.0048 9.93581 17.0836 10.1202 17.0836 10.3314V16.2938C17.0836 16.505 17.0043 16.6893 16.8455 16.8469C16.6868 17.0045 16.5021 17.0833 16.2915 17.0833H11.8307C11.6201 17.0833 11.436 17.0045 11.2784 16.8468C11.1208 16.6892 11.042 16.5048 11.042 16.2936ZM2.91699 16.2845V13.4238C2.91699 13.2064 2.99635 13.019 3.15508 12.8614C3.3138 12.7038 3.49676 12.625 3.70395 12.625H8.09174C8.29894 12.625 8.48133 12.7038 8.63891 12.8614C8.79649 13.019 8.87528 13.2064 8.87528 13.4238V16.2845C8.87528 16.5019 8.79593 16.6893 8.63722 16.8469C8.4785 17.0045 8.29553 17.0833 8.08833 17.0833H3.70055C3.49336 17.0833 3.31097 17.0045 3.15339 16.8469C2.99579 16.6893 2.91699 16.5019 2.91699 16.2845ZM4.2503 9.125H7.54199V4.25H4.2503V9.125ZM12.3753 15.75H15.7503V10.875H12.3753V15.75ZM12.3753 6.04169H15.7503V4.25H12.3753V6.04169ZM4.2503 15.75H7.54199V13.9583H4.2503V15.75Z" fill="#212121"/>
</g>
</g>
</svg>
